<?xml version="1.0"?>
<svg width="430" height="182" xmlns="http://www.w3.org/2000/svg">
 <g>
  <title>background</title>
  <rect fill="none" id="canvas_background" height="184" width="432" y="-1" x="-1"/>
 </g>

 <g>
  <title>Layer 1</title>
  <g id="svg_480">
   <g id="svg_147">
    <g id="svg_146">
     <g id="svg_143">
      <rect fill="#fff" stroke-width="2" x="147.218956" y="5.165132" width="134.000402" height="172.000473" id="svg_140" rx="1" stroke="#8c8c8c"/>
      <path fill="#fff" stroke-width="2" fill-opacity="null" d="m256.570251,29.914711l0,-22.000031l22.000122,22.000031l-22.000122,0z" id="svg_141" stroke="#8c8c8c"/>
      <path fill="#fff" stroke-width="2" d="m251.936966,33.389561l0,-32.810731l32.810776,32.810731l-32.810776,0z" id="svg_142" transform="rotate(-180 268.34234619140625,16.984191894531246) "/>
     </g>
     <rect fill="#dcdcdc" stroke-width="0" x="254.678993" y="31.913717" width="24.500001" height="2.333328" id="svg_144" stroke="#fff"/>
    </g>
   </g>
   <g id="svg_68">
    <g id="svg_47">
     <g id="svg_35"/>
     <rect fill="#dcdcdc" stroke-width="0" x="158.713686" y="16.665259" width="37.000249" height="12.000119" id="svg_36" rx="1" stroke="#fff" opacity="0.25"/>
     <rect fill="#dcdcdc" stroke-width="0" x="202.713686" y="16.665259" width="37.000249" height="12.000119" id="svg_37" rx="1" stroke="#fff" opacity="0.25"/>
     <g id="svg_40">
      <rect fill="#4e4c4c" stroke-width="0" x="160.046538" y="43.120974" width="50" height="3" id="svg_38" rx="1" stroke="#fff"/>
      <rect fill="#dcdcdc" stroke-width="0" x="160.712922" y="51.787594" width="107.000257" height="3" id="svg_39" rx="1" stroke="#fff"/>
      <rect fill="#dcdcdc" stroke-width="0" x="160.712922" y="56.787526" width="107.000257" height="3" id="svg_32" rx="1" stroke="#fff"/>
      <rect fill="#dcdcdc" stroke-width="0" x="160.712922" y="61.787458" width="107.000257" height="3" id="svg_33" rx="1" stroke="#fff"/>
      <rect fill="#dcdcdc" stroke-width="0" x="160.712922" y="66.787391" width="107.000257" height="3" id="svg_34" rx="1" stroke="#fff"/>
      <rect fill="#dcdcdc" stroke-width="0" x="160.712922" y="71.787323" width="50" height="3" id="svg_48" rx="1" stroke="#fff"/>
     </g>
     <g id="svg_43">
      <rect fill="#4e4c4c" stroke-width="0" x="160.046538" y="90.388548" width="50" height="3" id="svg_41" rx="1" stroke="#fff"/>
      <rect fill="#fff" stroke-width="2" x="160.712922" y="99.055168" width="107.000257" height="19.333457" id="svg_42" rx="1" stroke="#dcdcdc"/>
     </g>
     <g id="svg_46">
      <rect fill="#4e4c4c" stroke-width="0" x="160.046538" y="137.046107" width="50" height="3" id="svg_44" rx="1" stroke="#fff"/>
      <rect fill="#fff" stroke-width="2" x="160.712922" y="145.712727" width="107.000257" height="19.333457" id="svg_45" rx="1" stroke="#dcdcdc"/>
     </g>
    </g>
    <ellipse fill="#2ecc71" stroke-width="0" cx="265.319303" cy="44.164106" id="svg_64" rx="2" ry="2" stroke="#fff"/>
    <ellipse fill="#2ecc71" stroke-width="0" cx="265.319303" cy="91.663843" id="svg_65" rx="2" ry="2" stroke="#fff"/>
    <ellipse fill="#2ecc71" stroke-width="0" cx="265.319303" cy="138.163586" id="svg_66" rx="2" ry="2" stroke="#fff"/>
   </g>
  </g>
  <g id="svg_482">
   <g id="svg_155">
    <g id="svg_154">
     <g id="svg_151">
      <rect fill="#fff" stroke-width="2" x="289.644568" y="4.736685" width="134.000402" height="172.000473" id="svg_148" rx="1" stroke="#8c8c8c"/>
      <path fill="#fff" stroke-width="2" fill-opacity="null" d="m398.99588,29.486231l0,-22.000001l22.000122,22.000001l-22.000122,0z" id="svg_149" stroke="#8c8c8c"/>
      <path fill="#fff" stroke-width="2" d="m394.36261,32.961102l0,-32.810732l32.81073,32.810732l-32.81073,0z" id="svg_150" transform="rotate(-180 410.7679748535156,16.555734634399414) "/>
     </g>
     <rect fill="#dcdcdc" stroke-width="0" x="397.104605" y="31.48527" width="24.500001" height="2.333328" id="svg_152" stroke="#fff"/>
    </g>
   </g>
   <g id="svg_453" stroke="null">
    <rect fill="#ffffff" stroke-width="2" x="294.560997" y="154.765636" width="125.972355" height="18.917057" id="svg_449" stroke="#ffffff"/>
    <rect fill="#2ecc71" stroke-width="0" x="380.198092" y="158.185987" width="37.018251" height="12.166765" id="svg_451" rx="1" stroke="#fff"/>
   </g>
   <ellipse fill="#fff" cx="302.967854" cy="165.613883" id="svg_475" rx="3.624997" ry="3.624997" stroke="#8c8c8c"/>
   <g id="svg_49" opacity="0.2">
    <g id="svg_464">
     <rect fill="#4e4c4c" stroke-width="0" x="297.993325" y="52.402175" width="50" height="3" id="svg_455" rx="1" stroke="#fff"/>
     <rect fill="#dcdcdc" stroke-width="0" x="297.99331" y="57.907847" width="118.99991" height="3" id="svg_456" rx="1" stroke="#fff"/>
     <rect fill="#dcdcdc" stroke-width="0" x="297.99331" y="62.907841" width="118.99991" height="3" id="svg_458" rx="1" stroke="#fff"/>
     <rect fill="#dcdcdc" stroke-width="0" x="297.99331" y="67.907834" width="118.99991" height="3" id="svg_459" rx="1" stroke="#fff"/>
     <rect fill="#dcdcdc" stroke-width="0" x="297.99331" y="72.907827" width="118.99991" height="3" id="svg_460" rx="1" stroke="#fff"/>
     <rect fill="#dcdcdc" stroke-width="0" x="297.99331" y="77.907821" width="118.99991" height="3" id="svg_461" rx="1" stroke="#fff"/>
     <rect fill="#dcdcdc" stroke-width="0" x="297.993308" y="82.907814" width="60.499983" height="3" id="svg_462" rx="1" stroke="#fff"/>
    </g>
    <rect fill="#56aaff" stroke-width="0" x="298.557815" y="90.403027" width="116.388807" height="2" id="svg_454" fill-opacity="0.5"/>
    <g id="svg_472">
     <rect fill="#4e4c4c" stroke-width="0" x="297.993325" y="97.170891" width="50" height="3" id="svg_465" rx="1" stroke="#fff"/>
     <rect fill="#dcdcdc" stroke-width="0" x="297.99331" y="102.676563" width="118.99991" height="3" id="svg_466" rx="1" stroke="#fff"/>
     <rect fill="#dcdcdc" stroke-width="0" x="297.99331" y="107.676557" width="118.99991" height="3" id="svg_467" rx="1" stroke="#fff"/>
     <rect fill="#dcdcdc" stroke-width="0" x="297.99331" y="112.67655" width="118.99991" height="3" id="svg_468" rx="1" stroke="#fff"/>
     <rect fill="#dcdcdc" stroke-width="0" x="297.99331" y="117.676543" width="118.99991" height="3" id="svg_469" rx="1" stroke="#fff"/>
     <rect fill="#dcdcdc" stroke-width="0" x="297.99331" y="122.676536" width="118.99991" height="3" id="svg_470" rx="1" stroke="#fff"/>
     <rect fill="#dcdcdc" stroke-width="0" x="297.993308" y="127.67653" width="60.499983" height="3" id="svg_471" rx="1" stroke="#fff"/>
    </g>
   </g>
  </g>
  <g id="svg_1">
   <g id="svg_483">
    <g id="svg_139">
     <g id="svg_138">
      <g id="svg_135">
       <rect fill="#fff" stroke-width="2" x="5.600654" y="5.164999" width="133.875404" height="172.000473" id="svg_132" rx="1" stroke="#8c8c8c"/>
       <path fill="#fff" stroke-width="2" fill-opacity="null" d="m114.702042,29.914551l0,-22.00001l22.000046,22.00001l-22.000046,0z" id="svg_133" stroke="#8c8c8c"/>
       <path fill="#fff" stroke-width="4" d="m110.068771,33.38942l0,-32.81074l32.810684,32.81074l-32.810684,0z" id="svg_134" transform="rotate(-180 126.47413635253906,16.984046936035156) "/>
      </g>
      <rect fill="#dcdcdc" stroke-width="0" x="112.810693" y="31.913585" width="24.499998" height="2.333328" id="svg_136" stroke="#fff"/>
     </g>
    </g>
    <g id="svg_31">
     <rect fill="#4e4c4c" stroke-width="0" x="18.700117" y="17.164234" width="37.000249" height="12.000119" id="svg_12" rx="1" stroke="#fff"/>
     <rect fill="#4e4c4c" stroke-width="0" x="62.700117" y="17.164234" width="37.000249" height="12.000119" id="svg_13" rx="1" stroke="#fff"/>
     <g id="svg_24" opacity="0.5">
      <rect fill="#4e4c4c" stroke-width="0" x="20.032969" y="43.619949" width="50" height="3" id="svg_22" rx="1" stroke="#fff" opacity="0.25"/>
      <rect fill="#fff" stroke-width="2" x="20.699353" y="52.286569" width="107.000257" height="19.333457" id="svg_23" rx="1" stroke="#dcdcdc" opacity="0.25"/>
     </g>
     <g id="svg_27" opacity="0.5">
      <rect fill="#4e4c4c" stroke-width="0" x="20.032969" y="90.887523" width="50" height="3" id="svg_25" rx="1" stroke="#fff" opacity="0.25"/>
      <rect fill="#fff" stroke-width="2" x="20.699353" y="99.554143" width="107.000257" height="19.333457" id="svg_26" rx="1" stroke="#dcdcdc" opacity="0.25"/>
     </g>
     <g id="svg_30" opacity="0.5">
      <rect fill="#4e4c4c" stroke-width="0" x="20.032969" y="137.545082" width="50" height="3" id="svg_28" rx="1" stroke="#fff" opacity="0.25"/>
      <rect fill="#fff" stroke-width="2" x="20.699353" y="146.211702" width="107.000257" height="19.333457" id="svg_29" rx="1" stroke="#dcdcdc" opacity="0.25"/>
     </g>
     <path fill="#ffffff" stroke-width="0" stroke-opacity="null" d="m51.294941,21.51053l-1.866501,1.866529l1.866501,1.86628l-1.066681,1.067421l-2.933262,-2.933701l2.933262,-2.933969" id="svg_156" transform="rotate(-90 49.29496765136719,23.37692260742187) " stroke="#fff"/>
     <path fill="#ffffff" stroke-width="0" stroke-opacity="null" d="m95.627502,21.51053l-1.866501,1.866529l1.866501,1.86628l-1.066696,1.067421l-2.933228,-2.933701l2.933228,-2.933969" id="svg_157" transform="rotate(-90 93.62753295898439,23.37692260742187) " stroke="#fff"/>
    </g>
    <path fill="#4e4c4c" stroke="#fff" stroke-width="0" d="m35.885311,59.398399l6.212307,-10.87122l6.211941,10.87122l-12.424248,0z" id="svg_16"/>
   </g>
   <ellipse fill="none" cx="68.985781" cy="23.279367" id="svg_485" rx="3" ry="3" stroke="#ffffff"/>
   <rect fill="none" stroke="#ffffff" x="21.862716" y="20.047408" width="5" height="6" id="svg_486"/>
  </g>
  <g id="svg_9">
   <ellipse fill="#fff" stroke="#4e4c4c" stroke-width="3" cx="18.140398" cy="164.466364" id="svg_2" rx="15.454545" ry="15.454545"/>
   <g id="svg_7" transform="rotate(-1.161909580230713 18.45934295654562,164.11387634277344) ">
    <g id="svg_8" transform="rotate(-8.223978042602539 18.459342956543093,164.11390686035156) ">
     <rect fill="#4e4c4c" stroke-width="0" x="8.589068" y="164.591585" width="10.563896" height="2.804081" id="svg_5" transform="rotate(39.457275390625 14.840591430664016,166.4783630371094) "/>
     <rect fill="#4e4c4c" stroke-width="0" x="14.935529" y="162.678674" width="13.544425" height="2.804081" id="svg_6" transform="rotate(-45 21.707725524902315,164.0806884765625) "/>
    </g>
   </g>
  </g>
  <path fill="#4e4c4c" stroke-width="0" stroke-opacity="null" fill-opacity="null" d="m20.250191,35.335239l4.22715,-7.39744l4.227348,7.39744l-8.454498,0z" id="svg_17" stroke="#fff"/>
  <text fill="#4e4c4c" stroke="#fff" stroke-width="0" x="38.653804" y="168.165197" id="svg_19" font-size="11" font-family="Helvetica, Arial, sans-serif" text-anchor="left" xml:space="preserve" font-weight="bold">4:00</text>
  <path fill="#fff" stroke-width="3" d="m271.280121,32.318581l-9.471527,-5.952341c-2.391357,-1.501139 -5.539856,-0.777969 -7.048828,1.61079l-3.733246,5.94451l18.123291,11.37991l3.738495,-5.939259c1.498535,-2.39399 0.783203,-5.54509 -1.608185,-7.04361l0,0zm-52.495453,52.940811l18.118088,11.379822l29.537186,-47.014484l-18.128571,-11.385139l-29.526703,47.019802l0,0zm-2.767334,14.460411l-0.402023,10.690727l9.461075,-5.004639l8.787552,-4.639145l-17.486328,-10.98867l-0.360275,9.941727l0,0l0,0z" id="svg_21" stroke="#4e4c4c"/>
  <g id="svg_54">
   <text fill="#4e4c4c" stroke-width="0" x="316.200644" y="69.416506" id="svg_18" font-size="47" font-family="Helvetica, Arial, sans-serif" text-anchor="left" xml:space="preserve" font-weight="bold" stroke="#fff">3</text>
   <text fill="#4e4c4c" stroke-width="0" x="343.200281" y="90.416223" id="svg_51" font-size="47" font-family="Helvetica, Arial, sans-serif" text-anchor="left" xml:space="preserve" font-weight="bold" stroke="#fff">2</text>
   <text fill="#4e4c4c" stroke-width="0" x="369.949919" y="105.916015" id="svg_52" font-size="47" font-family="Helvetica, Arial, sans-serif" text-anchor="left" xml:space="preserve" font-weight="bold" stroke="#fff">1</text>
   <text fill="#4e4c4c" stroke="#4e4c4c" stroke-width="0" stroke-opacity="null" fill-opacity="null" x="321.495663" y="136.999381" id="svg_53" font-size="35" font-family="Helvetica, Arial, sans-serif" text-anchor="left" xml:space="preserve" font-weight="bold">GO!</text>
  </g>
  <g id="svg_56" stroke="null">
   <rect fill="#fff" stroke-width="3" x="20.303039" y="35.385705" width="78.075528" height="30.515166" id="svg_10" stroke="#4e4c4c"/>
   <text fill="#4e4c4c" stroke-width="0" x="24.204571" y="49.378267" id="svg_11" font-size="12" font-family="Helvetica, Arial, sans-serif" text-anchor="left" xml:space="preserve" font-weight="bold" transform="matrix(1.0504529930822388,0,0,1,-1.0243491140039893,0) " stroke="#fff">ELEVATOR</text>
   <text fill="#4e4c4c" stroke-width="0" x="24.454568" y="60.403657" id="svg_55" font-size="12" font-family="Helvetica, Arial, sans-serif" text-anchor="left" xml:space="preserve" font-weight="bold" transform="matrix(1.0504529930822388,0,0,1,-1.0243491140039893,0) " stroke="#fff">PITCH</text>
  </g>
 </g>
</svg>